^C:\USERS\MOHAMMED\DOCUMENTS\VISUAL STUDIO 2010\PROJECTS\TYPOGRAPHY\TYPOGRAPHY\MAIN.CPP
/c /ID:\Learning\HD\libraries\corona\src /I"D:\Learning\HD\libraries\Glew and Glut\glew-1.11.0\include" /I"D:\Learning\HD\libraries\Glew and Glut\freeglut\include" /ZI /nologo /W3 /WX- /Od /Oy- /D WIN32 /D _DEBUG /D _CONSOLE /D _UNICODE /D UNICODE /Gm /EHsc /RTC1 /MDd /GS /fp:precise /Zc:wchar_t /Zc:forScope /Fo"Debug\\" /Fd"Debug\vc100.pdb" /Gd /TP /analyze- /errorReport:prompt C:\USERS\MOHAMMED\DOCUMENTS\VISUAL STUDIO 2010\PROJECTS\TYPOGRAPHY\TYPOGRAPHY\MAIN.CPP
^C:\USERS\MOHAMMED\DROPBOX\WORK\TYPOGRAPHY\TYPOGRAPHY\MAIN.CPP
/c /IC:\Users\mohammed\Dropbox\Work\Typography\corona\src /I"C:\Users\mohammed\Dropbox\Work\Typography\Glew and Glut\glew-1.11.0\include" /I"C:\Users\mohammed\Dropbox\Work\Typography\freeglut-2.8.1\include" /ZI /nologo /W3 /WX- /Od /Oy- /D WIN32 /D _DEBUG /D _CONSOLE /D _UNICODE /D UNICODE /Gm /EHsc /RTC1 /MDd /GS /fp:precise /Zc:wchar_t /Zc:forScope /Fo"Debug\\" /Fd"Debug\vc100.pdb" /Gd /TP /analyze- /errorReport:prompt C:\USERS\MOHAMMED\DROPBOX\WORK\TYPOGRAPHY\TYPOGRAPHY\MAIN.CPP
