^C:\USERS\MOHAMMED\DOCUMENTS\VISUAL STUDIO 2010\PROJECTS\TYPOGRAPHY\TYPOGRAPHY\DEBUG\TYPOGRAPHY.EXE.INTERMEDIATE.MANIFEST
C:\USERS\MOHAMMED\DOCUMENTS\VISUAL STUDIO 2010\PROJECTS\TYPOGRAPHY\TYPOGRAPHY\DEBUG\TYPOGRAPHY.EXE.EMBED.MANIFEST
^C:\USERS\MOHAMMED\DROPBOX\WORK\TYPOGRAPHY\TYPOGRAPHY\DEBUG\TYPOGRAPHY.EXE.INTERMEDIATE.MANIFEST
C:\USERS\MOHAMMED\DROPBOX\WORK\TYPOGRAPHY\TYPOGRAPHY\DEBUG\TYPOGRAPHY.EXE.EMBED.MANIFEST
