^C:\USERS\MOHAMMED\DROPBOX\WORK\TYPOGRAPHY\TYPO\TYPO\TYPO\TEST.CPP
C:\PROGRAM FILES (X86)\MICROSOFT VISUAL STUDIO 10.0\VC\BIN\1033\CLUI.DLL
C:\WINDOWS\GLOBALIZATION\SORTING\SORTDEFAULT.NLS
C:\PROGRAM FILES (X86)\MICROSOFT VISUAL STUDIO 10.0\COMMON7\IDE\MSPDBSRV.EXE
C:\WINDOWS\SYSTEM32\TZRES.DLL
C:\USERS\MOHAMMED\DROPBOX\WORK\TYPOGRAPHY\SFML\SFML-2.2\INCLUDE\SFML\GRAPHICS.HPP
C:\USERS\MOHAMMED\DROPBOX\WORK\TYPOGRAPHY\SFML\SFML-2.2\INCLUDE\SFML\WINDOW.HPP
C:\USERS\MOHAMMED\DROPBOX\WORK\TYPOGRAPHY\SFML\SFML-2.2\INCLUDE\SFML\SYSTEM.HPP
C:\USERS\MOHAMMED\DROPBOX\WORK\TYPOGRAPHY\SFML\SFML-2.2\INCLUDE\SFML\CONFIG.HPP
C:\USERS\MOHAMMED\DROPBOX\WORK\TYPOGRAPHY\SFML\SFML-2.2\INCLUDE\SFML\SYSTEM\CLOCK.HPP
C:\USERS\MOHAMMED\DROPBOX\WORK\TYPOGRAPHY\SFML\SFML-2.2\INCLUDE\SFML\SYSTEM\EXPORT.HPP
C:\USERS\MOHAMMED\DROPBOX\WORK\TYPOGRAPHY\SFML\SFML-2.2\INCLUDE\SFML\SYSTEM\TIME.HPP
C:\USERS\MOHAMMED\DROPBOX\WORK\TYPOGRAPHY\SFML\SFML-2.2\INCLUDE\SFML\SYSTEM\ERR.HPP
C:\PROGRAM FILES (X86)\MICROSOFT VISUAL STUDIO 10.0\VC\INCLUDE\OSTREAM
C:\PROGRAM FILES (X86)\MICROSOFT VISUAL STUDIO 10.0\VC\INCLUDE\IOS
C:\PROGRAM FILES (X86)\MICROSOFT VISUAL STUDIO 10.0\VC\INCLUDE\XLOCNUM
C:\PROGRAM FILES (X86)\MICROSOFT VISUAL STUDIO 10.0\VC\INCLUDE\CLIMITS
C:\PROGRAM FILES (X86)\MICROSOFT VISUAL STUDIO 10.0\VC\INCLUDE\YVALS.H
C:\PROGRAM FILES (X86)\MICROSOFT VISUAL STUDIO 10.0\VC\INCLUDE\CRTDEFS.H
C:\PROGRAM FILES (X86)\MICROSOFT VISUAL STUDIO 10.0\VC\INCLUDE\SAL.H
C:\PROGRAM FILES (X86)\MICROSOFT VISUAL STUDIO 10.0\VC\INCLUDE\CODEANALYSIS\SOURCEANNOTATIONS.H
C:\PROGRAM FILES (X86)\MICROSOFT VISUAL STUDIO 10.0\VC\INCLUDE\VADEFS.H
C:\PROGRAM FILES (X86)\MICROSOFT VISUAL STUDIO 10.0\VC\INCLUDE\USE_ANSI.H
C:\PROGRAM FILES (X86)\MICROSOFT VISUAL STUDIO 10.0\VC\INCLUDE\LIMITS.H
C:\PROGRAM FILES (X86)\MICROSOFT VISUAL STUDIO 10.0\VC\INCLUDE\CMATH
C:\PROGRAM FILES (X86)\MICROSOFT VISUAL STUDIO 10.0\VC\INCLUDE\MATH.H
C:\PROGRAM FILES (X86)\MICROSOFT VISUAL STUDIO 10.0\VC\INCLUDE\CSTDIO
C:\PROGRAM FILES (X86)\MICROSOFT VISUAL STUDIO 10.0\VC\INCLUDE\STDIO.H
C:\PROGRAM FILES (X86)\MICROSOFT VISUAL STUDIO 10.0\VC\INCLUDE\SWPRINTF.INL
C:\PROGRAM FILES (X86)\MICROSOFT VISUAL STUDIO 10.0\VC\INCLUDE\CSTDLIB
C:\PROGRAM FILES (X86)\MICROSOFT VISUAL STUDIO 10.0\VC\INCLUDE\STDLIB.H
C:\PROGRAM FILES (X86)\MICROSOFT VISUAL STUDIO 10.0\VC\INCLUDE\STREAMBUF
C:\PROGRAM FILES (X86)\MICROSOFT VISUAL STUDIO 10.0\VC\INCLUDE\XIOSBASE
C:\PROGRAM FILES (X86)\MICROSOFT VISUAL STUDIO 10.0\VC\INCLUDE\XLOCALE
C:\PROGRAM FILES (X86)\MICROSOFT VISUAL STUDIO 10.0\VC\INCLUDE\CSTRING
C:\PROGRAM FILES (X86)\MICROSOFT VISUAL STUDIO 10.0\VC\INCLUDE\STRING.H
C:\PROGRAM FILES (X86)\MICROSOFT VISUAL STUDIO 10.0\VC\INCLUDE\STDEXCEPT
C:\PROGRAM FILES (X86)\MICROSOFT VISUAL STUDIO 10.0\VC\INCLUDE\EXCEPTION
C:\PROGRAM FILES (X86)\MICROSOFT VISUAL STUDIO 10.0\VC\INCLUDE\XSTDDEF
C:\PROGRAM FILES (X86)\MICROSOFT VISUAL STUDIO 10.0\VC\INCLUDE\CSTDDEF
C:\PROGRAM FILES (X86)\MICROSOFT VISUAL STUDIO 10.0\VC\INCLUDE\STDDEF.H
C:\PROGRAM FILES (X86)\MICROSOFT VISUAL STUDIO 10.0\VC\INCLUDE\EH.H
C:\PROGRAM FILES (X86)\MICROSOFT VISUAL STUDIO 10.0\VC\INCLUDE\MALLOC.H
C:\PROGRAM FILES (X86)\MICROSOFT VISUAL STUDIO 10.0\VC\INCLUDE\XSTRING
C:\PROGRAM FILES (X86)\MICROSOFT VISUAL STUDIO 10.0\VC\INCLUDE\XMEMORY
C:\PROGRAM FILES (X86)\MICROSOFT VISUAL STUDIO 10.0\VC\INCLUDE\NEW
C:\PROGRAM FILES (X86)\MICROSOFT VISUAL STUDIO 10.0\VC\INCLUDE\XUTILITY
C:\PROGRAM FILES (X86)\MICROSOFT VISUAL STUDIO 10.0\VC\INCLUDE\UTILITY
C:\PROGRAM FILES (X86)\MICROSOFT VISUAL STUDIO 10.0\VC\INCLUDE\IOSFWD
C:\PROGRAM FILES (X86)\MICROSOFT VISUAL STUDIO 10.0\VC\INCLUDE\CWCHAR
C:\PROGRAM FILES (X86)\MICROSOFT VISUAL STUDIO 10.0\VC\INCLUDE\WCHAR.H
C:\PROGRAM FILES (X86)\MICROSOFT VISUAL STUDIO 10.0\VC\INCLUDE\WTIME.INL
C:\PROGRAM FILES (X86)\MICROSOFT VISUAL STUDIO 10.0\VC\INCLUDE\CRTDBG.H
C:\PROGRAM FILES (X86)\MICROSOFT VISUAL STUDIO 10.0\VC\INCLUDE\TYPE_TRAITS
C:\PROGRAM FILES (X86)\MICROSOFT VISUAL STUDIO 10.0\VC\INCLUDE\LIMITS
C:\PROGRAM FILES (X86)\MICROSOFT VISUAL STUDIO 10.0\VC\INCLUDE\YMATH.H
C:\PROGRAM FILES (X86)\MICROSOFT VISUAL STUDIO 10.0\VC\INCLUDE\CFLOAT
C:\PROGRAM FILES (X86)\MICROSOFT VISUAL STUDIO 10.0\VC\INCLUDE\FLOAT.H
C:\PROGRAM FILES (X86)\MICROSOFT VISUAL STUDIO 10.0\VC\INCLUDE\CRTWRN.H
C:\PROGRAM FILES (X86)\MICROSOFT VISUAL STUDIO 10.0\VC\INCLUDE\XTR1COMMON
C:\PROGRAM FILES (X86)\MICROSOFT VISUAL STUDIO 10.0\VC\INCLUDE\XFWRAP
C:\PROGRAM FILES (X86)\MICROSOFT VISUAL STUDIO 10.0\VC\INCLUDE\XFWRAP1
C:\PROGRAM FILES (X86)\MICROSOFT VISUAL STUDIO 10.0\VC\INCLUDE\XXTYPE_TRAITS
C:\PROGRAM FILES (X86)\MICROSOFT VISUAL STUDIO 10.0\VC\INCLUDE\TYPEINFO
C:\PROGRAM FILES (X86)\MICROSOFT VISUAL STUDIO 10.0\VC\INCLUDE\XLOCINFO
C:\PROGRAM FILES (X86)\MICROSOFT VISUAL STUDIO 10.0\VC\INCLUDE\XLOCINFO.H
C:\PROGRAM FILES (X86)\MICROSOFT VISUAL STUDIO 10.0\VC\INCLUDE\CTYPE.H
C:\PROGRAM FILES (X86)\MICROSOFT VISUAL STUDIO 10.0\VC\INCLUDE\LOCALE.H
C:\PROGRAM FILES (X86)\MICROSOFT VISUAL STUDIO 10.0\VC\INCLUDE\XDEBUG
C:\PROGRAM FILES (X86)\MICROSOFT VISUAL STUDIO 10.0\VC\INCLUDE\SYSTEM_ERROR
C:\PROGRAM FILES (X86)\MICROSOFT VISUAL STUDIO 10.0\VC\INCLUDE\CERRNO
C:\PROGRAM FILES (X86)\MICROSOFT VISUAL STUDIO 10.0\VC\INCLUDE\ERRNO.H
C:\PROGRAM FILES (X86)\MICROSOFT VISUAL STUDIO 10.0\VC\INCLUDE\SHARE.H
C:\USERS\MOHAMMED\DROPBOX\WORK\TYPOGRAPHY\SFML\SFML-2.2\INCLUDE\SFML\SYSTEM\INPUTSTREAM.HPP
C:\USERS\MOHAMMED\DROPBOX\WORK\TYPOGRAPHY\SFML\SFML-2.2\INCLUDE\SFML\SYSTEM\LOCK.HPP
C:\USERS\MOHAMMED\DROPBOX\WORK\TYPOGRAPHY\SFML\SFML-2.2\INCLUDE\SFML\SYSTEM\NONCOPYABLE.HPP
C:\USERS\MOHAMMED\DROPBOX\WORK\TYPOGRAPHY\SFML\SFML-2.2\INCLUDE\SFML\SYSTEM\MUTEX.HPP
C:\USERS\MOHAMMED\DROPBOX\WORK\TYPOGRAPHY\SFML\SFML-2.2\INCLUDE\SFML\SYSTEM\SLEEP.HPP
C:\USERS\MOHAMMED\DROPBOX\WORK\TYPOGRAPHY\SFML\SFML-2.2\INCLUDE\SFML\SYSTEM\STRING.HPP
C:\USERS\MOHAMMED\DROPBOX\WORK\TYPOGRAPHY\SFML\SFML-2.2\INCLUDE\SFML\SYSTEM\UTF.HPP
C:\PROGRAM FILES (X86)\MICROSOFT VISUAL STUDIO 10.0\VC\INCLUDE\ALGORITHM
C:\PROGRAM FILES (X86)\MICROSOFT VISUAL STUDIO 10.0\VC\INCLUDE\MEMORY
C:\PROGRAM FILES (X86)\MICROSOFT VISUAL STUDIO 10.0\VC\INCLUDE\INTRIN.H
C:\PROGRAM FILES (X86)\MICROSOFT VISUAL STUDIO 10.0\VC\INCLUDE\SETJMP.H
C:\PROGRAM FILES (X86)\MICROSOFT VISUAL STUDIO 10.0\VC\INCLUDE\IMMINTRIN.H
C:\PROGRAM FILES (X86)\MICROSOFT VISUAL STUDIO 10.0\VC\INCLUDE\WMMINTRIN.H
C:\PROGRAM FILES (X86)\MICROSOFT VISUAL STUDIO 10.0\VC\INCLUDE\NMMINTRIN.H
C:\PROGRAM FILES (X86)\MICROSOFT VISUAL STUDIO 10.0\VC\INCLUDE\SMMINTRIN.H
C:\PROGRAM FILES (X86)\MICROSOFT VISUAL STUDIO 10.0\VC\INCLUDE\TMMINTRIN.H
C:\PROGRAM FILES (X86)\MICROSOFT VISUAL STUDIO 10.0\VC\INCLUDE\PMMINTRIN.H
C:\PROGRAM FILES (X86)\MICROSOFT VISUAL STUDIO 10.0\VC\INCLUDE\EMMINTRIN.H
C:\PROGRAM FILES (X86)\MICROSOFT VISUAL STUDIO 10.0\VC\INCLUDE\XMMINTRIN.H
C:\PROGRAM FILES (X86)\MICROSOFT VISUAL STUDIO 10.0\VC\INCLUDE\MMINTRIN.H
C:\PROGRAM FILES (X86)\MICROSOFT VISUAL STUDIO 10.0\VC\INCLUDE\AMMINTRIN.H
C:\PROGRAM FILES (X86)\MICROSOFT VISUAL STUDIO 10.0\VC\INCLUDE\MM3DNOW.H
C:\PROGRAM FILES (X86)\MICROSOFT VISUAL STUDIO 10.0\VC\INCLUDE\XXSHARED
C:\PROGRAM FILES (X86)\MICROSOFT VISUAL STUDIO 10.0\VC\INCLUDE\LOCALE
C:\PROGRAM FILES (X86)\MICROSOFT VISUAL STUDIO 10.0\VC\INCLUDE\STRING
C:\PROGRAM FILES (X86)\MICROSOFT VISUAL STUDIO 10.0\VC\INCLUDE\ISTREAM
C:\PROGRAM FILES (X86)\MICROSOFT VISUAL STUDIO 10.0\VC\INCLUDE\XLOCBUF
C:\PROGRAM FILES (X86)\MICROSOFT VISUAL STUDIO 10.0\VC\INCLUDE\XLOCMES
C:\PROGRAM FILES (X86)\MICROSOFT VISUAL STUDIO 10.0\VC\INCLUDE\XLOCMON
C:\PROGRAM FILES (X86)\MICROSOFT VISUAL STUDIO 10.0\VC\INCLUDE\XLOCTIME
C:\PROGRAM FILES (X86)\MICROSOFT VISUAL STUDIO 10.0\VC\INCLUDE\CTIME
C:\PROGRAM FILES (X86)\MICROSOFT VISUAL STUDIO 10.0\VC\INCLUDE\TIME.H
C:\PROGRAM FILES (X86)\MICROSOFT VISUAL STUDIO 10.0\VC\INCLUDE\TIME.INL
C:\USERS\MOHAMMED\DROPBOX\WORK\TYPOGRAPHY\SFML\SFML-2.2\INCLUDE\SFML\SYSTEM\UTF.INL
C:\USERS\MOHAMMED\DROPBOX\WORK\TYPOGRAPHY\SFML\SFML-2.2\INCLUDE\SFML\SYSTEM\STRING.INL
C:\USERS\MOHAMMED\DROPBOX\WORK\TYPOGRAPHY\SFML\SFML-2.2\INCLUDE\SFML\SYSTEM\THREAD.HPP
C:\USERS\MOHAMMED\DROPBOX\WORK\TYPOGRAPHY\SFML\SFML-2.2\INCLUDE\SFML\SYSTEM\THREAD.INL
C:\USERS\MOHAMMED\DROPBOX\WORK\TYPOGRAPHY\SFML\SFML-2.2\INCLUDE\SFML\SYSTEM\THREADLOCAL.HPP
C:\USERS\MOHAMMED\DROPBOX\WORK\TYPOGRAPHY\SFML\SFML-2.2\INCLUDE\SFML\SYSTEM\THREADLOCALPTR.HPP
C:\USERS\MOHAMMED\DROPBOX\WORK\TYPOGRAPHY\SFML\SFML-2.2\INCLUDE\SFML\SYSTEM\THREADLOCALPTR.INL
C:\USERS\MOHAMMED\DROPBOX\WORK\TYPOGRAPHY\SFML\SFML-2.2\INCLUDE\SFML\SYSTEM\VECTOR2.HPP
C:\USERS\MOHAMMED\DROPBOX\WORK\TYPOGRAPHY\SFML\SFML-2.2\INCLUDE\SFML\SYSTEM\VECTOR2.INL
C:\USERS\MOHAMMED\DROPBOX\WORK\TYPOGRAPHY\SFML\SFML-2.2\INCLUDE\SFML\SYSTEM\VECTOR3.HPP
C:\USERS\MOHAMMED\DROPBOX\WORK\TYPOGRAPHY\SFML\SFML-2.2\INCLUDE\SFML\SYSTEM\VECTOR3.INL
C:\USERS\MOHAMMED\DROPBOX\WORK\TYPOGRAPHY\SFML\SFML-2.2\INCLUDE\SFML\WINDOW\CONTEXT.HPP
C:\USERS\MOHAMMED\DROPBOX\WORK\TYPOGRAPHY\SFML\SFML-2.2\INCLUDE\SFML\WINDOW\EXPORT.HPP
C:\USERS\MOHAMMED\DROPBOX\WORK\TYPOGRAPHY\SFML\SFML-2.2\INCLUDE\SFML\WINDOW\GLRESOURCE.HPP
C:\USERS\MOHAMMED\DROPBOX\WORK\TYPOGRAPHY\SFML\SFML-2.2\INCLUDE\SFML\WINDOW\CONTEXTSETTINGS.HPP
C:\USERS\MOHAMMED\DROPBOX\WORK\TYPOGRAPHY\SFML\SFML-2.2\INCLUDE\SFML\WINDOW\EVENT.HPP
C:\USERS\MOHAMMED\DROPBOX\WORK\TYPOGRAPHY\SFML\SFML-2.2\INCLUDE\SFML\WINDOW\JOYSTICK.HPP
C:\USERS\MOHAMMED\DROPBOX\WORK\TYPOGRAPHY\SFML\SFML-2.2\INCLUDE\SFML\WINDOW\KEYBOARD.HPP
C:\USERS\MOHAMMED\DROPBOX\WORK\TYPOGRAPHY\SFML\SFML-2.2\INCLUDE\SFML\WINDOW\MOUSE.HPP
C:\USERS\MOHAMMED\DROPBOX\WORK\TYPOGRAPHY\SFML\SFML-2.2\INCLUDE\SFML\WINDOW\SENSOR.HPP
C:\USERS\MOHAMMED\DROPBOX\WORK\TYPOGRAPHY\SFML\SFML-2.2\INCLUDE\SFML\WINDOW\TOUCH.HPP
C:\USERS\MOHAMMED\DROPBOX\WORK\TYPOGRAPHY\SFML\SFML-2.2\INCLUDE\SFML\WINDOW\VIDEOMODE.HPP
C:\PROGRAM FILES (X86)\MICROSOFT VISUAL STUDIO 10.0\VC\INCLUDE\VECTOR
C:\PROGRAM FILES (X86)\MICROSOFT VISUAL STUDIO 10.0\VC\INCLUDE\XFUNCTIONAL
C:\USERS\MOHAMMED\DROPBOX\WORK\TYPOGRAPHY\SFML\SFML-2.2\INCLUDE\SFML\WINDOW\WINDOW.HPP
C:\USERS\MOHAMMED\DROPBOX\WORK\TYPOGRAPHY\SFML\SFML-2.2\INCLUDE\SFML\WINDOW\WINDOWHANDLE.HPP
C:\USERS\MOHAMMED\DROPBOX\WORK\TYPOGRAPHY\SFML\SFML-2.2\INCLUDE\SFML\WINDOW\WINDOWSTYLE.HPP
C:\USERS\MOHAMMED\DROPBOX\WORK\TYPOGRAPHY\SFML\SFML-2.2\INCLUDE\SFML\GRAPHICS\BLENDMODE.HPP
C:\USERS\MOHAMMED\DROPBOX\WORK\TYPOGRAPHY\SFML\SFML-2.2\INCLUDE\SFML\GRAPHICS\EXPORT.HPP
C:\USERS\MOHAMMED\DROPBOX\WORK\TYPOGRAPHY\SFML\SFML-2.2\INCLUDE\SFML\GRAPHICS\COLOR.HPP
C:\USERS\MOHAMMED\DROPBOX\WORK\TYPOGRAPHY\SFML\SFML-2.2\INCLUDE\SFML\GRAPHICS\FONT.HPP
C:\USERS\MOHAMMED\DROPBOX\WORK\TYPOGRAPHY\SFML\SFML-2.2\INCLUDE\SFML\GRAPHICS\GLYPH.HPP
C:\USERS\MOHAMMED\DROPBOX\WORK\TYPOGRAPHY\SFML\SFML-2.2\INCLUDE\SFML\GRAPHICS\RECT.HPP
C:\USERS\MOHAMMED\DROPBOX\WORK\TYPOGRAPHY\SFML\SFML-2.2\INCLUDE\SFML\GRAPHICS\RECT.INL
C:\USERS\MOHAMMED\DROPBOX\WORK\TYPOGRAPHY\SFML\SFML-2.2\INCLUDE\SFML\GRAPHICS\TEXTURE.HPP
C:\USERS\MOHAMMED\DROPBOX\WORK\TYPOGRAPHY\SFML\SFML-2.2\INCLUDE\SFML\GRAPHICS\IMAGE.HPP
C:\PROGRAM FILES (X86)\MICROSOFT VISUAL STUDIO 10.0\VC\INCLUDE\MAP
C:\PROGRAM FILES (X86)\MICROSOFT VISUAL STUDIO 10.0\VC\INCLUDE\XTREE
C:\USERS\MOHAMMED\DROPBOX\WORK\TYPOGRAPHY\SFML\SFML-2.2\INCLUDE\SFML\GRAPHICS\RENDERSTATES.HPP
C:\USERS\MOHAMMED\DROPBOX\WORK\TYPOGRAPHY\SFML\SFML-2.2\INCLUDE\SFML\GRAPHICS\TRANSFORM.HPP
C:\USERS\MOHAMMED\DROPBOX\WORK\TYPOGRAPHY\SFML\SFML-2.2\INCLUDE\SFML\GRAPHICS\RENDERTEXTURE.HPP
C:\USERS\MOHAMMED\DROPBOX\WORK\TYPOGRAPHY\SFML\SFML-2.2\INCLUDE\SFML\GRAPHICS\RENDERTARGET.HPP
C:\USERS\MOHAMMED\DROPBOX\WORK\TYPOGRAPHY\SFML\SFML-2.2\INCLUDE\SFML\GRAPHICS\VIEW.HPP
C:\USERS\MOHAMMED\DROPBOX\WORK\TYPOGRAPHY\SFML\SFML-2.2\INCLUDE\SFML\GRAPHICS\PRIMITIVETYPE.HPP
C:\USERS\MOHAMMED\DROPBOX\WORK\TYPOGRAPHY\SFML\SFML-2.2\INCLUDE\SFML\GRAPHICS\VERTEX.HPP
C:\USERS\MOHAMMED\DROPBOX\WORK\TYPOGRAPHY\SFML\SFML-2.2\INCLUDE\SFML\GRAPHICS\RENDERWINDOW.HPP
C:\USERS\MOHAMMED\DROPBOX\WORK\TYPOGRAPHY\SFML\SFML-2.2\INCLUDE\SFML\GRAPHICS\SHADER.HPP
C:\USERS\MOHAMMED\DROPBOX\WORK\TYPOGRAPHY\SFML\SFML-2.2\INCLUDE\SFML\GRAPHICS\SHAPE.HPP
C:\USERS\MOHAMMED\DROPBOX\WORK\TYPOGRAPHY\SFML\SFML-2.2\INCLUDE\SFML\GRAPHICS\DRAWABLE.HPP
C:\USERS\MOHAMMED\DROPBOX\WORK\TYPOGRAPHY\SFML\SFML-2.2\INCLUDE\SFML\GRAPHICS\TRANSFORMABLE.HPP
C:\USERS\MOHAMMED\DROPBOX\WORK\TYPOGRAPHY\SFML\SFML-2.2\INCLUDE\SFML\GRAPHICS\VERTEXARRAY.HPP
C:\USERS\MOHAMMED\DROPBOX\WORK\TYPOGRAPHY\SFML\SFML-2.2\INCLUDE\SFML\GRAPHICS\CIRCLESHAPE.HPP
C:\USERS\MOHAMMED\DROPBOX\WORK\TYPOGRAPHY\SFML\SFML-2.2\INCLUDE\SFML\GRAPHICS\RECTANGLESHAPE.HPP
C:\USERS\MOHAMMED\DROPBOX\WORK\TYPOGRAPHY\SFML\SFML-2.2\INCLUDE\SFML\GRAPHICS\CONVEXSHAPE.HPP
C:\USERS\MOHAMMED\DROPBOX\WORK\TYPOGRAPHY\SFML\SFML-2.2\INCLUDE\SFML\GRAPHICS\SPRITE.HPP
C:\USERS\MOHAMMED\DROPBOX\WORK\TYPOGRAPHY\SFML\SFML-2.2\INCLUDE\SFML\GRAPHICS\TEXT.HPP
