^C:\USERS\MOHAMMED\DROPBOX\WORK\TYPOGRAPHY\TYPO\TYPO\TYPO\TEST.CPP
C:\USERS\MOHAMMED\DROPBOX\WORK\TYPOGRAPHY\TYPO\TYPO\TYPO\DEBUG\TEST.OBJ
C:\USERS\MOHAMMED\DROPBOX\WORK\TYPOGRAPHY\TYPO\TYPO\TYPO\DEBUG\VC100.PDB
