^C:\USERS\MOHAMMED\DROPBOX\WORK\TYPOGRAPHY\TYPO\TYPO\TYPO\DEBUG\TEST.OBJ|C:\USERS\MOHAMMED\DROPBOX\WORK\TYPOGRAPHY\TYPO\TYPO\TYPO\DEBUG\TYPO.EXE.EMBED.MANIFEST.RES
C:\USERS\MOHAMMED\DROPBOX\WORK\TYPOGRAPHY\SFML\SFML-2.2\LIB\SFML-GRAPHICS.LIB
C:\USERS\MOHAMMED\DROPBOX\WORK\TYPOGRAPHY\SFML\SFML-2.2\LIB\SFML-WINDOW.LIB
C:\USERS\MOHAMMED\DROPBOX\WORK\TYPOGRAPHY\SFML\SFML-2.2\LIB\SFML-SYSTEM.LIB
C:\PROGRAM FILES (X86)\MICROSOFT SDKS\WINDOWS\V7.0A\LIB\KERNEL32.LIB
C:\PROGRAM FILES (X86)\MICROSOFT SDKS\WINDOWS\V7.0A\LIB\USER32.LIB
C:\PROGRAM FILES (X86)\MICROSOFT SDKS\WINDOWS\V7.0A\LIB\GDI32.LIB
C:\PROGRAM FILES (X86)\MICROSOFT SDKS\WINDOWS\V7.0A\LIB\WINSPOOL.LIB
C:\PROGRAM FILES (X86)\MICROSOFT SDKS\WINDOWS\V7.0A\LIB\COMDLG32.LIB
C:\PROGRAM FILES (X86)\MICROSOFT SDKS\WINDOWS\V7.0A\LIB\ADVAPI32.LIB
C:\PROGRAM FILES (X86)\MICROSOFT SDKS\WINDOWS\V7.0A\LIB\SHELL32.LIB
C:\PROGRAM FILES (X86)\MICROSOFT SDKS\WINDOWS\V7.0A\LIB\OLE32.LIB
C:\PROGRAM FILES (X86)\MICROSOFT SDKS\WINDOWS\V7.0A\LIB\OLEAUT32.LIB
C:\PROGRAM FILES (X86)\MICROSOFT SDKS\WINDOWS\V7.0A\LIB\UUID.LIB
C:\PROGRAM FILES (X86)\MICROSOFT SDKS\WINDOWS\V7.0A\LIB\ODBC32.LIB
C:\PROGRAM FILES (X86)\MICROSOFT SDKS\WINDOWS\V7.0A\LIB\ODBCCP32.LIB
C:\USERS\MOHAMMED\DROPBOX\WORK\TYPOGRAPHY\TYPO\TYPO\TYPO\DEBUG\TYPO.EXE.EMBED.MANIFEST.RES
C:\USERS\MOHAMMED\DROPBOX\WORK\TYPOGRAPHY\TYPO\TYPO\TYPO\DEBUG\TEST.OBJ
C:\WINDOWS\SYSTEM32\TZRES.DLL
C:\USERS\MOHAMMED\DROPBOX\WORK\TYPOGRAPHY\TYPO\TYPO\DEBUG\TYPO.ILK
C:\USERS\MOHAMMED\DROPBOX\WORK\TYPOGRAPHY\TYPO\TYPO\DEBUG\TYPO.EXE
C:\USERS\MOHAMMED\DROPBOX\WORK\TYPOGRAPHY\TYPO\TYPO\DEBUG\TYPO.PDB
C:\WINDOWS\GLOBALIZATION\SORTING\SORTDEFAULT.NLS
C:\PROGRAM FILES (X86)\MICROSOFT VISUAL STUDIO 10.0\VC\LIB\MSVCPRTD.LIB
C:\PROGRAM FILES (X86)\MICROSOFT VISUAL STUDIO 10.0\VC\LIB\MSVCRTD.LIB
C:\PROGRAM FILES (X86)\MICROSOFT VISUAL STUDIO 10.0\VC\LIB\OLDNAMES.LIB
C:\PROGRAM FILES (X86)\MICROSOFT VISUAL STUDIO 10.0\VC\BIN\CVTRES.EXE
C:\PROGRAM FILES (X86)\MICROSOFT VISUAL STUDIO 10.0\VC\BIN\LINK.EXE
